{
    "expand": "schema,names",
    "startAt": 0,
    "maxResults": 50,
    "total": 3,
    "issues": [
        {
            "expand": "operations,versionedRepresentations,editmeta,changelog,renderedFields",
            "id": "10003",
            "self": "https://aarongnielsen.atlassian.net/rest/api/2/issue/10003",
            "key": "TOPREP-3",
            "fields": {
                "issuetype": {
                    "self": "https://aarongnielsen.atlassian.net/rest/api/2/issuetype/10002",
                    "id": "10002",
                    "description": "A task that needs to be done.",
                    "iconUrl": "https://aarongnielsen.atlassian.net/secure/viewavatar?size=xsmall&avatarId=10318&avatarType=issuetype",
                    "name": "Task",
                    "subtask": false,
                    "avatarId": 10318
                },
                "timespent": null,
                "customfield_10030": {
                    "id": "3",
                    "name": "Time to resolution",
                    "_links": {
                        "self": "https://aarongnielsen.atlassian.net/rest/servicedeskapi/request/10003/sla/3"
                    },
                    "completedCycles": [],
                    "ongoingCycle": {
                        "startTime": {
                            "iso8601": "2019-02-17T20:34:17+1030",
                            "jira": "2019-02-17T20:34:17.511+1030",
                            "friendly": "Today 8:34 PM",
                            "epochMillis": 1550397857511
                        },
                        "breachTime": {
                            "iso8601": "2019-02-18T13:00:00+1030",
                            "jira": "2019-02-18T13:00:00.000+1030",
                            "friendly": "18/Feb/19 1:00 PM",
                            "epochMillis": 1550457000000
                        },
                        "breached": false,
                        "paused": false,
                        "withinCalendarHours": false,
                        "goalDuration": {
                            "millis": 14400000,
                            "friendly": "4h"
                        },
                        "elapsedTime": {
                            "millis": 0,
                            "friendly": "0m"
                        },
                        "remainingTime": {
                            "millis": 14400000,
                            "friendly": "4h"
                        }
                    }
                },
                "customfield_10031": "English",
                "project": {
                    "self": "https://aarongnielsen.atlassian.net/rest/api/2/project/10003",
                    "id": "10003",
                    "key": "TOPREP",
                    "name": "Top Reporters",
                    "projectTypeKey": "service_desk",
                    "avatarUrls": {
                        "48x48": "https://aarongnielsen.atlassian.net/secure/projectavatar?avatarId=10324",
                        "24x24": "https://aarongnielsen.atlassian.net/secure/projectavatar?size=small&avatarId=10324",
                        "16x16": "https://aarongnielsen.atlassian.net/secure/projectavatar?size=xsmall&avatarId=10324",
                        "32x32": "https://aarongnielsen.atlassian.net/secure/projectavatar?size=medium&avatarId=10324"
                    }
                },
                "fixVersions": [],
                "aggregatetimespent": null,
                "resolution": null,
                "resolutiondate": null,
                "workratio": -1,
                "watches": {
                    "self": "https://aarongnielsen.atlassian.net/rest/api/2/issue/TOPREP-3/watchers",
                    "watchCount": 0,
                    "isWatching": false
                },
                "lastViewed": null,
                "created": "2019-02-17T20:34:17.376+1030",
                "customfield_10020": null,
                "customfield_10021": null,
                "customfield_10022": "0|i0000n:",
                "customfield_10023": [],
                "priority": {
                    "self": "https://aarongnielsen.atlassian.net/rest/api/2/priority/3",
                    "iconUrl": "https://aarongnielsen.atlassian.net/images/icons/priorities/medium.svg",
                    "name": "Medium",
                    "id": "3"
                },
                "customfield_10024": null,
                "customfield_10025": null,
                "labels": [],
                "customfield_10026": null,
                "customfield_10016": null,
                "customfield_10017": null,
                "customfield_10018": {
                    "hasEpicLinkFieldDependency": false,
                    "showField": false,
                    "nonEditableReason": {
                        "reason": "PLUGIN_LICENSE_ERROR",
                        "message": "Portfolio for Jira must be licensed for the Parent Link to be available."
                    }
                },
                "customfield_10019": null,
                "timeestimate": null,
                "aggregatetimeoriginalestimate": null,
                "versions": [],
                "issuelinks": [],
                "assignee": null,
                "updated": "2019-02-17T20:34:17.376+1030",
                "status": {
                    "self": "https://aarongnielsen.atlassian.net/rest/api/2/status/10001",
                    "description": "",
                    "iconUrl": "https://aarongnielsen.atlassian.net/",
                    "name": "To Do",
                    "id": "10001",
                    "statusCategory": {
                        "self": "https://aarongnielsen.atlassian.net/rest/api/2/statuscategory/2",
                        "id": 2,
                        "key": "new",
                        "colorName": "blue-gray",
                        "name": "To Do"
                    }
                },
                "components": [],
                "timeoriginalestimate": null,
                "description": "I want to see your skills of an artist.",
                "customfield_10010": {
                    "_links": {
                        "jiraRest": "https://aarongnielsen.atlassian.net/rest/api/2/issue/10003",
                        "web": "https://aarongnielsen.atlassian.net/servicedesk/customer/portal/3/TOPREP-3",
                        "self": "https://aarongnielsen.atlassian.net/rest/servicedeskapi/request/10003"
                    },
                    "requestType": {
                        "_expands": [
                            "field"
                        ],
                        "id": "7",
                        "_links": {
                            "self": "https://aarongnielsen.atlassian.net/rest/servicedeskapi/servicedesk/3/requesttype/7"
                        },
                        "name": "Task - Detailed",
                        "description": "",
                        "helpText": "",
                        "issueTypeId": "10002",
                        "serviceDeskId": "3",
                        "groupIds": [
                            "3"
                        ],
                        "icon": {
                            "id": "10491",
                            "_links": {
                                "iconUrls": {
                                    "48x48": "https://aarongnielsen.atlassian.net/secure/viewavatar?avatarType=SD_REQTYPE&avatarId=10491&size=large",
                                    "24x24": "https://aarongnielsen.atlassian.net/secure/viewavatar?avatarType=SD_REQTYPE&avatarId=10491&size=small",
                                    "16x16": "https://aarongnielsen.atlassian.net/secure/viewavatar?avatarType=SD_REQTYPE&avatarId=10491&size=xsmall",
                                    "32x32": "https://aarongnielsen.atlassian.net/secure/viewavatar?avatarType=SD_REQTYPE&avatarId=10491&size=medium"
                                }
                            }
                        }
                    },
                    "currentStatus": {
                        "status": "To Do",
                        "statusCategory": "NEW",
                        "statusDate": {
                            "iso8601": "2019-02-17T20:34:17+1030",
                            "jira": "2019-02-17T20:34:17.376+1030",
                            "friendly": "Today 8:34 PM",
                            "epochMillis": 1550397857376
                        }
                    }
                },
                "customfield_10014": null,
                "customfield_10015": null,
                "customfield_10005": null,
                "customfield_10006": null,
                "customfield_10007": null,
                "security": null,
                "customfield_10008": null,
                "customfield_10009": null,
                "aggregatetimeestimate": null,
                "summary": "draw a dragon",
                "creator": {
                    "self": "https://aarongnielsen.atlassian.net/rest/api/2/user?accountId=5c68b857f3071d570623a566",
                    "name": "admin",
                    "key": "admin",
                    "accountId": "5c68b857f3071d570623a566",
                    "emailAddress": "aarongnielsen@gmail.com",
                    "avatarUrls": {
                        "48x48": "https://avatar-cdn.atlassian.com/0f83eae3a0913b96f5d73fe38c2ee8c2?s=48&d=https%3A%2F%2Fsecure.gravatar.com%2Favatar%2F0f83eae3a0913b96f5d73fe38c2ee8c2%3Fd%3Dmm%26s%3D48%26noRedirect%3Dtrue",
                        "24x24": "https://avatar-cdn.atlassian.com/0f83eae3a0913b96f5d73fe38c2ee8c2?s=24&d=https%3A%2F%2Fsecure.gravatar.com%2Favatar%2F0f83eae3a0913b96f5d73fe38c2ee8c2%3Fd%3Dmm%26s%3D24%26noRedirect%3Dtrue",
                        "16x16": "https://avatar-cdn.atlassian.com/0f83eae3a0913b96f5d73fe38c2ee8c2?s=16&d=https%3A%2F%2Fsecure.gravatar.com%2Favatar%2F0f83eae3a0913b96f5d73fe38c2ee8c2%3Fd%3Dmm%26s%3D16%26noRedirect%3Dtrue",
                        "32x32": "https://avatar-cdn.atlassian.com/0f83eae3a0913b96f5d73fe38c2ee8c2?s=32&d=https%3A%2F%2Fsecure.gravatar.com%2Favatar%2F0f83eae3a0913b96f5d73fe38c2ee8c2%3Fd%3Dmm%26s%3D32%26noRedirect%3Dtrue"
                    },
                    "displayName": "Aaron Nielsen",
                    "active": true,
                    "timeZone": "Australia/Adelaide"
                },
                "subtasks": [],
                "reporter": {
                    "self": "https://aarongnielsen.atlassian.net/rest/api/2/user?accountId=5c68b857f3071d570623a566",
                    "name": "admin",
                    "key": "admin",
                    "accountId": "5c68b857f3071d570623a566",
                    "emailAddress": "aarongnielsen@gmail.com",
                    "avatarUrls": {
                        "48x48": "https://avatar-cdn.atlassian.com/0f83eae3a0913b96f5d73fe38c2ee8c2?s=48&d=https%3A%2F%2Fsecure.gravatar.com%2Favatar%2F0f83eae3a0913b96f5d73fe38c2ee8c2%3Fd%3Dmm%26s%3D48%26noRedirect%3Dtrue",
                        "24x24": "https://avatar-cdn.atlassian.com/0f83eae3a0913b96f5d73fe38c2ee8c2?s=24&d=https%3A%2F%2Fsecure.gravatar.com%2Favatar%2F0f83eae3a0913b96f5d73fe38c2ee8c2%3Fd%3Dmm%26s%3D24%26noRedirect%3Dtrue",
                        "16x16": "https://avatar-cdn.atlassian.com/0f83eae3a0913b96f5d73fe38c2ee8c2?s=16&d=https%3A%2F%2Fsecure.gravatar.com%2Favatar%2F0f83eae3a0913b96f5d73fe38c2ee8c2%3Fd%3Dmm%26s%3D16%26noRedirect%3Dtrue",
                        "32x32": "https://avatar-cdn.atlassian.com/0f83eae3a0913b96f5d73fe38c2ee8c2?s=32&d=https%3A%2F%2Fsecure.gravatar.com%2Favatar%2F0f83eae3a0913b96f5d73fe38c2ee8c2%3Fd%3Dmm%26s%3D32%26noRedirect%3Dtrue"
                    },
                    "displayName": "Aaron Nielsen",
                    "active": true,
                    "timeZone": "Australia/Adelaide"
                },
                "aggregateprogress": {
                    "progress": 0,
                    "total": 0
                },
                "customfield_10000": "{}",
                "customfield_10001": null,
                "customfield_10002": [],
                "customfield_10003": null,
                "customfield_10004": null,
                "environment": null,
                "duedate": null,
                "progress": {
                    "progress": 0,
                    "total": 0
                },
                "votes": {
                    "self": "https://aarongnielsen.atlassian.net/rest/api/2/issue/TOPREP-3/votes",
                    "votes": 0,
                    "hasVoted": false
                }
            }
        },
        {
            "expand": "operations,versionedRepresentations,editmeta,changelog,renderedFields",
            "id": "10002",
            "self": "https://aarongnielsen.atlassian.net/rest/api/2/issue/10002",
            "key": "TOPREP-2",
            "fields": {
                "issuetype": {
                    "self": "https://aarongnielsen.atlassian.net/rest/api/2/issuetype/10002",
                    "id": "10002",
                    "description": "A task that needs to be done.",
                    "iconUrl": "https://aarongnielsen.atlassian.net/secure/viewavatar?size=xsmall&avatarId=10318&avatarType=issuetype",
                    "name": "Task",
                    "subtask": false,
                    "avatarId": 10318
                },
                "timespent": null,
                "customfield_10030": {
                    "id": "3",
                    "name": "Time to resolution",
                    "_links": {
                        "self": "https://aarongnielsen.atlassian.net/rest/servicedeskapi/request/10002/sla/3"
                    },
                    "completedCycles": [],
                    "ongoingCycle": {
                        "startTime": {
                            "iso8601": "2019-02-17T19:52:42+1030",
                            "jira": "2019-02-17T19:52:42.960+1030",
                            "friendly": "Today 7:52 PM",
                            "epochMillis": 1550395362960
                        },
                        "breachTime": {
                            "iso8601": "2019-02-18T13:00:00+1030",
                            "jira": "2019-02-18T13:00:00.000+1030",
                            "friendly": "18/Feb/19 1:00 PM",
                            "epochMillis": 1550457000000
                        },
                        "breached": false,
                        "paused": false,
                        "withinCalendarHours": false,
                        "goalDuration": {
                            "millis": 14400000,
                            "friendly": "4h"
                        },
                        "elapsedTime": {
                            "millis": 0,
                            "friendly": "0m"
                        },
                        "remainingTime": {
                            "millis": 14400000,
                            "friendly": "4h"
                        }
                    }
                },
                "customfield_10031": "English",
                "project": {
                    "self": "https://aarongnielsen.atlassian.net/rest/api/2/project/10003",
                    "id": "10003",
                    "key": "TOPREP",
                    "name": "Top Reporters",
                    "projectTypeKey": "service_desk",
                    "avatarUrls": {
                        "48x48": "https://aarongnielsen.atlassian.net/secure/projectavatar?avatarId=10324",
                        "24x24": "https://aarongnielsen.atlassian.net/secure/projectavatar?size=small&avatarId=10324",
                        "16x16": "https://aarongnielsen.atlassian.net/secure/projectavatar?size=xsmall&avatarId=10324",
                        "32x32": "https://aarongnielsen.atlassian.net/secure/projectavatar?size=medium&avatarId=10324"
                    }
                },
                "fixVersions": [],
                "aggregatetimespent": null,
                "resolution": null,
                "resolutiondate": null,
                "workratio": -1,
                "lastViewed": null,
                "watches": {
                    "self": "https://aarongnielsen.atlassian.net/rest/api/2/issue/TOPREP-2/watchers",
                    "watchCount": 0,
                    "isWatching": false
                },
                "created": "2019-02-17T19:52:42.819+1030",
                "customfield_10020": null,
                "customfield_10021": null,
                "customfield_10022": "0|i0000f:",
                "priority": {
                    "self": "https://aarongnielsen.atlassian.net/rest/api/2/priority/3",
                    "iconUrl": "https://aarongnielsen.atlassian.net/images/icons/priorities/medium.svg",
                    "name": "Medium",
                    "id": "3"
                },
                "customfield_10023": [],
                "customfield_10024": null,
                "customfield_10025": null,
                "labels": [],
                "customfield_10026": null,
                "customfield_10016": null,
                "customfield_10017": null,
                "customfield_10018": {
                    "hasEpicLinkFieldDependency": false,
                    "showField": false,
                    "nonEditableReason": {
                        "reason": "PLUGIN_LICENSE_ERROR",
                        "message": "Portfolio for Jira must be licensed for the Parent Link to be available."
                    }
                },
                "customfield_10019": null,
                "aggregatetimeoriginalestimate": null,
                "timeestimate": null,
                "versions": [],
                "issuelinks": [],
                "assignee": null,
                "updated": "2019-02-17T19:52:42.819+1030",
                "status": {
                    "self": "https://aarongnielsen.atlassian.net/rest/api/2/status/10001",
                    "description": "",
                    "iconUrl": "https://aarongnielsen.atlassian.net/",
                    "name": "To Do",
                    "id": "10001",
                    "statusCategory": {
                        "self": "https://aarongnielsen.atlassian.net/rest/api/2/statuscategory/2",
                        "id": 2,
                        "key": "new",
                        "colorName": "blue-gray",
                        "name": "To Do"
                    }
                },
                "components": [],
                "timeoriginalestimate": null,
                "description": null,
                "customfield_10010": {
                    "_links": {
                        "jiraRest": "https://aarongnielsen.atlassian.net/rest/api/2/issue/10002",
                        "web": "https://aarongnielsen.atlassian.net/servicedesk/customer/portal/3/TOPREP-2",
                        "self": "https://aarongnielsen.atlassian.net/rest/servicedeskapi/request/10002"
                    },
                    "requestType": {
                        "_expands": [
                            "field"
                        ],
                        "id": "8",
                        "_links": {
                            "self": "https://aarongnielsen.atlassian.net/rest/servicedeskapi/servicedesk/3/requesttype/8"
                        },
                        "name": "Task - Quick",
                        "description": "",
                        "helpText": "",
                        "issueTypeId": "10002",
                        "serviceDeskId": "3",
                        "groupIds": [
                            "3"
                        ],
                        "icon": {
                            "id": "10491",
                            "_links": {
                                "iconUrls": {
                                    "48x48": "https://aarongnielsen.atlassian.net/secure/viewavatar?avatarType=SD_REQTYPE&avatarId=10491&size=large",
                                    "24x24": "https://aarongnielsen.atlassian.net/secure/viewavatar?avatarType=SD_REQTYPE&avatarId=10491&size=small",
                                    "16x16": "https://aarongnielsen.atlassian.net/secure/viewavatar?avatarType=SD_REQTYPE&avatarId=10491&size=xsmall",
                                    "32x32": "https://aarongnielsen.atlassian.net/secure/viewavatar?avatarType=SD_REQTYPE&avatarId=10491&size=medium"
                                }
                            }
                        }
                    },
                    "currentStatus": {
                        "status": "To Do",
                        "statusCategory": "NEW",
                        "statusDate": {
                            "iso8601": "2019-02-17T19:52:42+1030",
                            "jira": "2019-02-17T19:52:42.819+1030",
                            "friendly": "Today 7:52 PM",
                            "epochMillis": 1550395362819
                        }
                    }
                },
                "customfield_10014": null,
                "customfield_10015": null,
                "customfield_10005": null,
                "customfield_10006": null,
                "security": null,
                "customfield_10007": null,
                "customfield_10008": null,
                "aggregatetimeestimate": null,
                "customfield_10009": null,
                "summary": "Everybody! Everybody!",
                "creator": {
                    "self": "https://aarongnielsen.atlassian.net/rest/api/2/user?accountId=5c6925f6ef824a13063899e4",
                    "name": "homestar_agn",
                    "key": "5c6925f6ef824a13063899e4",
                    "accountId": "5c6925f6ef824a13063899e4",
                    "emailAddress": "homestar_agn@mailinator.com",
                    "avatarUrls": {
                        "48x48": "https://avatar-cdn.atlassian.com/b6d7acf86482d132433c55d927ab385a?s=48&d=https%3A%2F%2Fsecure.gravatar.com%2Favatar%2Fb6d7acf86482d132433c55d927ab385a%3Fd%3Dmm%26s%3D48%26noRedirect%3Dtrue",
                        "24x24": "https://avatar-cdn.atlassian.com/b6d7acf86482d132433c55d927ab385a?s=24&d=https%3A%2F%2Fsecure.gravatar.com%2Favatar%2Fb6d7acf86482d132433c55d927ab385a%3Fd%3Dmm%26s%3D24%26noRedirect%3Dtrue",
                        "16x16": "https://avatar-cdn.atlassian.com/b6d7acf86482d132433c55d927ab385a?s=16&d=https%3A%2F%2Fsecure.gravatar.com%2Favatar%2Fb6d7acf86482d132433c55d927ab385a%3Fd%3Dmm%26s%3D16%26noRedirect%3Dtrue",
                        "32x32": "https://avatar-cdn.atlassian.com/b6d7acf86482d132433c55d927ab385a?s=32&d=https%3A%2F%2Fsecure.gravatar.com%2Favatar%2Fb6d7acf86482d132433c55d927ab385a%3Fd%3Dmm%26s%3D32%26noRedirect%3Dtrue"
                    },
                    "displayName": "Homestar Runner",
                    "active": true,
                    "timeZone": "Australia/Adelaide"
                },
                "subtasks": [],
                "reporter": {
                    "self": "https://aarongnielsen.atlassian.net/rest/api/2/user?accountId=5c6925f6ef824a13063899e4",
                    "name": "homestar_agn",
                    "key": "5c6925f6ef824a13063899e4",
                    "accountId": "5c6925f6ef824a13063899e4",
                    "emailAddress": "homestar_agn@mailinator.com",
                    "avatarUrls": {
                        "48x48": "https://avatar-cdn.atlassian.com/b6d7acf86482d132433c55d927ab385a?s=48&d=https%3A%2F%2Fsecure.gravatar.com%2Favatar%2Fb6d7acf86482d132433c55d927ab385a%3Fd%3Dmm%26s%3D48%26noRedirect%3Dtrue",
                        "24x24": "https://avatar-cdn.atlassian.com/b6d7acf86482d132433c55d927ab385a?s=24&d=https%3A%2F%2Fsecure.gravatar.com%2Favatar%2Fb6d7acf86482d132433c55d927ab385a%3Fd%3Dmm%26s%3D24%26noRedirect%3Dtrue",
                        "16x16": "https://avatar-cdn.atlassian.com/b6d7acf86482d132433c55d927ab385a?s=16&d=https%3A%2F%2Fsecure.gravatar.com%2Favatar%2Fb6d7acf86482d132433c55d927ab385a%3Fd%3Dmm%26s%3D16%26noRedirect%3Dtrue",
                        "32x32": "https://avatar-cdn.atlassian.com/b6d7acf86482d132433c55d927ab385a?s=32&d=https%3A%2F%2Fsecure.gravatar.com%2Favatar%2Fb6d7acf86482d132433c55d927ab385a%3Fd%3Dmm%26s%3D32%26noRedirect%3Dtrue"
                    },
                    "displayName": "Homestar Runner",
                    "active": true,
                    "timeZone": "Australia/Adelaide"
                },
                "customfield_10000": "{}",
                "aggregateprogress": {
                    "progress": 0,
                    "total": 0
                },
                "customfield_10001": null,
                "customfield_10002": [],
                "customfield_10003": null,
                "customfield_10004": null,
                "environment": null,
                "duedate": null,
                "progress": {
                    "progress": 0,
                    "total": 0
                },
                "votes": {
                    "self": "https://aarongnielsen.atlassian.net/rest/api/2/issue/TOPREP-2/votes",
                    "votes": 0,
                    "hasVoted": false
                }
            }
        },
        {
            "expand": "operations,versionedRepresentations,editmeta,changelog,renderedFields",
            "id": "10001",
            "self": "https://aarongnielsen.atlassian.net/rest/api/2/issue/10001",
            "key": "TOPREP-1",
            "fields": {
                "issuetype": {
                    "self": "https://aarongnielsen.atlassian.net/rest/api/2/issuetype/10001",
                    "id": "10001",
                    "description": "Stories track functionality or features expressed as user goals.",
                    "iconUrl": "https://aarongnielsen.atlassian.net/secure/viewavatar?size=xsmall&avatarId=10315&avatarType=issuetype",
                    "name": "Story",
                    "subtask": false,
                    "avatarId": 10315
                },
                "timespent": null,
                "customfield_10030": {
                    "id": "3",
                    "name": "Time to resolution",
                    "_links": {
                        "self": "https://aarongnielsen.atlassian.net/rest/servicedeskapi/request/10001/sla/3"
                    },
                    "completedCycles": [],
                    "ongoingCycle": {
                        "startTime": {
                            "iso8601": "2019-02-17T19:47:42+1030",
                            "jira": "2019-02-17T19:47:42.169+1030",
                            "friendly": "Today 7:47 PM",
                            "epochMillis": 1550395062169
                        },
                        "breachTime": {
                            "iso8601": "2019-02-18T13:00:00+1030",
                            "jira": "2019-02-18T13:00:00.000+1030",
                            "friendly": "18/Feb/19 1:00 PM",
                            "epochMillis": 1550457000000
                        },
                        "breached": false,
                        "paused": false,
                        "withinCalendarHours": false,
                        "goalDuration": {
                            "millis": 14400000,
                            "friendly": "4h"
                        },
                        "elapsedTime": {
                            "millis": 0,
                            "friendly": "0m"
                        },
                        "remainingTime": {
                            "millis": 14400000,
                            "friendly": "4h"
                        }
                    }
                },
                "project": {
                    "self": "https://aarongnielsen.atlassian.net/rest/api/2/project/10003",
                    "id": "10003",
                    "key": "TOPREP",
                    "name": "Top Reporters",
                    "projectTypeKey": "service_desk",
                    "avatarUrls": {
                        "48x48": "https://aarongnielsen.atlassian.net/secure/projectavatar?avatarId=10324",
                        "24x24": "https://aarongnielsen.atlassian.net/secure/projectavatar?size=small&avatarId=10324",
                        "16x16": "https://aarongnielsen.atlassian.net/secure/projectavatar?size=xsmall&avatarId=10324",
                        "32x32": "https://aarongnielsen.atlassian.net/secure/projectavatar?size=medium&avatarId=10324"
                    }
                },
                "customfield_10031": "English",
                "fixVersions": [],
                "aggregatetimespent": null,
                "resolution": null,
                "customfield_10027": null,
                "resolutiondate": null,
                "workratio": -1,
                "watches": {
                    "self": "https://aarongnielsen.atlassian.net/rest/api/2/issue/TOPREP-1/watchers",
                    "watchCount": 1,
                    "isWatching": false
                },
                "lastViewed": null,
                "created": "2019-02-17T19:47:41.885+1030",
                "customfield_10020": null,
                "customfield_10021": null,
                "customfield_10022": "0|i00007:",
                "customfield_10023": [],
                "priority": {
                    "self": "https://aarongnielsen.atlassian.net/rest/api/2/priority/3",
                    "iconUrl": "https://aarongnielsen.atlassian.net/images/icons/priorities/medium.svg",
                    "name": "Medium",
                    "id": "3"
                },
                "customfield_10024": null,
                "customfield_10025": null,
                "customfield_10026": null,
                "labels": [],
                "customfield_10016": null,
                "customfield_10017": null,
                "customfield_10018": {
                    "hasEpicLinkFieldDependency": false,
                    "showField": false,
                    "nonEditableReason": {
                        "reason": "PLUGIN_LICENSE_ERROR",
                        "message": "Portfolio for Jira must be licensed for the Parent Link to be available."
                    }
                },
                "customfield_10019": null,
                "timeestimate": null,
                "aggregatetimeoriginalestimate": null,
                "versions": [],
                "issuelinks": [],
                "assignee": null,
                "updated": "2019-02-17T19:47:41.885+1030",
                "status": {
                    "self": "https://aarongnielsen.atlassian.net/rest/api/2/status/10001",
                    "description": "",
                    "iconUrl": "https://aarongnielsen.atlassian.net/",
                    "name": "To Do",
                    "id": "10001",
                    "statusCategory": {
                        "self": "https://aarongnielsen.atlassian.net/rest/api/2/statuscategory/2",
                        "id": 2,
                        "key": "new",
                        "colorName": "blue-gray",
                        "name": "To Do"
                    }
                },
                "components": [],
                "timeoriginalestimate": null,
                "description": "He is a tewwific athlete.",
                "customfield_10010": null,
                "customfield_10014": null,
                "customfield_10015": null,
                "customfield_10005": null,
                "customfield_10006": null,
                "customfield_10007": null,
                "security": null,
                "customfield_10008": null,
                "aggregatetimeestimate": null,
                "customfield_10009": null,
                "summary": "Everybody loves the Homestar Runner",
                "creator": {
                    "self": "https://aarongnielsen.atlassian.net/rest/api/2/user?accountId=5c6925f6ef824a13063899e4",
                    "name": "homestar_agn",
                    "key": "5c6925f6ef824a13063899e4",
                    "accountId": "5c6925f6ef824a13063899e4",
                    "emailAddress": "homestar_agn@mailinator.com",
                    "avatarUrls": {
                        "48x48": "https://avatar-cdn.atlassian.com/b6d7acf86482d132433c55d927ab385a?s=48&d=https%3A%2F%2Fsecure.gravatar.com%2Favatar%2Fb6d7acf86482d132433c55d927ab385a%3Fd%3Dmm%26s%3D48%26noRedirect%3Dtrue",
                        "24x24": "https://avatar-cdn.atlassian.com/b6d7acf86482d132433c55d927ab385a?s=24&d=https%3A%2F%2Fsecure.gravatar.com%2Favatar%2Fb6d7acf86482d132433c55d927ab385a%3Fd%3Dmm%26s%3D24%26noRedirect%3Dtrue",
                        "16x16": "https://avatar-cdn.atlassian.com/b6d7acf86482d132433c55d927ab385a?s=16&d=https%3A%2F%2Fsecure.gravatar.com%2Favatar%2Fb6d7acf86482d132433c55d927ab385a%3Fd%3Dmm%26s%3D16%26noRedirect%3Dtrue",
                        "32x32": "https://avatar-cdn.atlassian.com/b6d7acf86482d132433c55d927ab385a?s=32&d=https%3A%2F%2Fsecure.gravatar.com%2Favatar%2Fb6d7acf86482d132433c55d927ab385a%3Fd%3Dmm%26s%3D32%26noRedirect%3Dtrue"
                    },
                    "displayName": "Homestar Runner",
                    "active": true,
                    "timeZone": "Australia/Adelaide"
                },
                "subtasks": [],
                "reporter": {
                    "self": "https://aarongnielsen.atlassian.net/rest/api/2/user?accountId=5c6925f6ef824a13063899e4",
                    "name": "homestar_agn",
                    "key": "5c6925f6ef824a13063899e4",
                    "accountId": "5c6925f6ef824a13063899e4",
                    "emailAddress": "homestar_agn@mailinator.com",
                    "avatarUrls": {
                        "48x48": "https://avatar-cdn.atlassian.com/b6d7acf86482d132433c55d927ab385a?s=48&d=https%3A%2F%2Fsecure.gravatar.com%2Favatar%2Fb6d7acf86482d132433c55d927ab385a%3Fd%3Dmm%26s%3D48%26noRedirect%3Dtrue",
                        "24x24": "https://avatar-cdn.atlassian.com/b6d7acf86482d132433c55d927ab385a?s=24&d=https%3A%2F%2Fsecure.gravatar.com%2Favatar%2Fb6d7acf86482d132433c55d927ab385a%3Fd%3Dmm%26s%3D24%26noRedirect%3Dtrue",
                        "16x16": "https://avatar-cdn.atlassian.com/b6d7acf86482d132433c55d927ab385a?s=16&d=https%3A%2F%2Fsecure.gravatar.com%2Favatar%2Fb6d7acf86482d132433c55d927ab385a%3Fd%3Dmm%26s%3D16%26noRedirect%3Dtrue",
                        "32x32": "https://avatar-cdn.atlassian.com/b6d7acf86482d132433c55d927ab385a?s=32&d=https%3A%2F%2Fsecure.gravatar.com%2Favatar%2Fb6d7acf86482d132433c55d927ab385a%3Fd%3Dmm%26s%3D32%26noRedirect%3Dtrue"
                    },
                    "displayName": "Homestar Runner",
                    "active": true,
                    "timeZone": "Australia/Adelaide"
                },
                "customfield_10000": "{}",
                "aggregateprogress": {
                    "progress": 0,
                    "total": 0
                },
                "customfield_10001": null,
                "customfield_10002": [],
                "customfield_10003": null,
                "customfield_10004": null,
                "environment": null,
                "duedate": null,
                "progress": {
                    "progress": 0,
                    "total": 0
                },
                "votes": {
                    "self": "https://aarongnielsen.atlassian.net/rest/api/2/issue/TOPREP-1/votes",
                    "votes": 0,
                    "hasVoted": false
                }
            }
        }
    ]
}